{
    "id": "08a5731c-a557-4c90-a142-f245a3a45c28",
    "schema": "https://metadata.datadrivendiscovery.org/schemas/v0/pipeline.json",
    "created": "2021-05-17T21:15:09.643912Z",
    "inputs": [
        {
            "name": "inputs"
        }
    ],
    "outputs": [
        {
            "data": "steps.14.produce",
            "name": "output"
        }
    ],
    "steps": [
        {
            "type": "PRIMITIVE",
            "primitive": {
                "id": "4b42ce1e-9b98-4a25-b68e-fad13311eb65",
                "version": "0.3.0",
                "python_path": "d3m.primitives.data_transformation.dataset_to_dataframe.Common",
                "name": "Extract a DataFrame from a Dataset"
            },
            "arguments": {
                "inputs": {
                    "type": "CONTAINER",
                    "data": "inputs.0"
                }
            },
            "outputs": [
                {
                    "id": "produce"
                }
            ]
        },
        {
            "type": "PRIMITIVE",
            "primitive": {
                "id": "e193afa1-b45e-4d29-918f-5bb1fa3b88a7",
                "version": "0.2.0",
                "python_path": "d3m.primitives.schema_discovery.profiler.Common",
                "name": "Determine missing semantic types for columns automatically"
            },
            "arguments": {
                "inputs": {
                    "type": "CONTAINER",
                    "data": "steps.0.produce"
                }
            },
            "outputs": [
                {
                    "id": "produce"
                }
            ]
        },
        {
            "type": "PRIMITIVE",
            "primitive": {
                "id": "e8e78214-9770-4c26-9eae-a45bd0ede91a",
                "version": "0.6.0",
                "python_path": "d3m.primitives.data_transformation.column_parser.DistilColumnParser",
                "name": "Column Parser"
            },
            "arguments": {
                "inputs": {
                    "type": "CONTAINER",
                    "data": "steps.1.produce"
                }
            },
            "outputs": [
                {
                    "id": "produce"
                }
            ],
            "hyperparams": {
                "parsing_semantics": {
                    "type": "VALUE",
                    "data": [
                        "http://schema.org/Integer",
                        "http://schema.org/Float",
                        "https://metadata.datadrivendiscovery.org/types/FloatVector"
                    ]
                }
            }
        },
        {
            "type": "PRIMITIVE",
            "primitive": {
                "id": "4503a4c6-42f7-45a1-a1d4-ed69699cf5e1",
                "version": "0.4.0",
                "python_path": "d3m.primitives.data_transformation.extract_columns_by_semantic_types.Common",
                "name": "Extracts columns by semantic type"
            },
            "arguments": {
                "inputs": {
                    "type": "CONTAINER",
                    "data": "steps.2.produce"
                }
            },
            "outputs": [
                {
                    "id": "produce"
                }
            ],
            "hyperparams": {
                "semantic_types": {
                    "type": "VALUE",
                    "data": [
                        "https://metadata.datadrivendiscovery.org/types/Attribute"
                    ]
                }
            }
        },
        {
            "type": "PRIMITIVE",
            "primitive": {
                "id": "4503a4c6-42f7-45a1-a1d4-ed69699cf5e1",
                "version": "0.4.0",
                "python_path": "d3m.primitives.data_transformation.extract_columns_by_semantic_types.Common",
                "name": "Extracts columns by semantic type"
            },
            "arguments": {
                "inputs": {
                    "type": "CONTAINER",
                    "data": "steps.2.produce"
                }
            },
            "outputs": [
                {
                    "id": "produce"
                }
            ],
            "hyperparams": {
                "semantic_types": {
                    "type": "VALUE",
                    "data": [
                        "https://metadata.datadrivendiscovery.org/types/Target",
                        "https://metadata.datadrivendiscovery.org/types/TrueTarget"
                    ]
                }
            }
        },
        {
            "type": "PRIMITIVE",
            "primitive": {
                "id": "b1367f5b-bab1-4dfc-a1a9-6a56430e516a",
                "version": "0.6.0",
                "python_path": "d3m.primitives.data_transformation.enrich_dates.DistilEnrichDates",
                "name": "Enrich dates"
            },
            "arguments": {
                "inputs": {
                    "type": "CONTAINER",
                    "data": "steps.3.produce"
                }
            },
            "outputs": [
                {
                    "id": "produce"
                }
            ]
        },
        {
            "type": "PRIMITIVE",
            "primitive": {
                "id": "67f53b00-f936-4bb4-873e-4698c4aaa37f",
                "version": "0.6.0",
                "python_path": "d3m.primitives.data_transformation.list_to_dataframe.DistilListEncoder",
                "name": "List encoder"
            },
            "arguments": {
                "inputs": {
                    "type": "CONTAINER",
                    "data": "steps.3.produce"
                }
            },
            "outputs": [
                {
                    "id": "produce"
                }
            ]
        },
        {
            "type": "PRIMITIVE",
            "primitive": {
                "id": "7cacc8b6-85ad-4c8f-9f75-360e0faee2b8",
                "version": "0.6.0",
                "python_path": "d3m.primitives.data_transformation.replace_singletons.DistilReplaceSingletons",
                "name": "Replace singeltons"
            },
            "arguments": {
                "inputs": {
                    "type": "CONTAINER",
                    "data": "steps.6.produce"
                }
            },
            "outputs": [
                {
                    "id": "produce"
                }
            ]
        },
        {
            "type": "PRIMITIVE",
            "primitive": {
                "id": "0a9936f3-7784-4697-82f0-2a5fcc744c16",
                "version": "0.6.0",
                "python_path": "d3m.primitives.data_transformation.imputer.DistilCategoricalImputer",
                "name": "Categorical imputer"
            },
            "arguments": {
                "inputs": {
                    "type": "CONTAINER",
                    "data": "steps.7.produce"
                }
            },
            "outputs": [
                {
                    "id": "produce"
                }
            ]
        },
        {
            "type": "PRIMITIVE",
            "primitive": {
                "id": "09f252eb-215d-4e0b-9a60-fcd967f5e708",
                "version": "0.6.0",
                "python_path": "d3m.primitives.data_transformation.encoder.DistilTextEncoder",
                "name": "Text encoder"
            },
            "arguments": {
                "inputs": {
                    "type": "CONTAINER",
                    "data": "steps.8.produce"
                },
                "outputs": {
                    "type": "CONTAINER",
                    "data": "steps.4.produce"
                }
            },
            "outputs": [
                {
                    "id": "produce"
                }
            ]
        },
        {
            "type": "PRIMITIVE",
            "primitive": {
                "id": "d3d421cb-9601-43f0-83d9-91a9c4199a06",
                "version": "0.6.0",
                "python_path": "d3m.primitives.data_transformation.one_hot_encoder.DistilOneHotEncoder",
                "name": "One-hot encoder"
            },
            "arguments": {
                "inputs": {
                    "type": "CONTAINER",
                    "data": "steps.9.produce"
                }
            },
            "outputs": [
                {
                    "id": "produce"
                }
            ],
            "hyperparams": {
                "max_one_hot": {
                    "type": "VALUE",
                    "data": 16
                }
            }
        },
        {
            "type": "PRIMITIVE",
            "primitive": {
                "id": "d38e2e28-9b18-4ce4-b07c-9d809cd8b915",
                "version": "0.6.0",
                "python_path": "d3m.primitives.data_transformation.encoder.DistilBinaryEncoder",
                "name": "Binary encoder"
            },
            "arguments": {
                "inputs": {
                    "type": "CONTAINER",
                    "data": "steps.10.produce"
                }
            },
            "outputs": [
                {
                    "id": "produce"
                }
            ],
            "hyperparams": {
                "min_binary": {
                    "type": "VALUE",
                    "data": 17
                }
            }
        },
        {
            "type": "PRIMITIVE",
            "primitive": {
                "id": "f70b2324-1102-35f7-aaf6-7cd8e860acc4",
                "version": "1.5.3",
                "python_path": "d3m.primitives.data_preprocessing.iterative_regression_imputation.DSBOX",
                "name": "DSBox Iterative Regression Imputer"
            },
            "arguments": {
                "inputs": {
                    "type": "CONTAINER",
                    "data": "steps.11.produce"
                }
            },
            "outputs": [
                {
                    "id": "produce"
                }
            ]
        },
        {
            "type": "PRIMITIVE",
            "primitive": {
                "id": "e0ad06ce-b484-46b0-a478-c567e1ea7e02",
                "version": "0.6.0",
                "python_path": "d3m.primitives.learner.random_forest.DistilEnsembleForest",
                "name": "EnsembleForest"
            },
            "arguments": {
                "inputs": {
                    "type": "CONTAINER",
                    "data": "steps.12.produce"
                },
                "outputs": {
                    "type": "CONTAINER",
                    "data": "steps.4.produce"
                }
            },
            "outputs": [
                {
                    "id": "produce"
                }
            ],
            "hyperparams": {
                "grid_search": {
                    "type": "VALUE",
                    "data": true
                },
                "small_dataset_fits": {
                    "type": "VALUE",
                    "data": 1
                },
                "compute_confidences": {
                    "type": "VALUE",
                    "data": true
                },
                "pos_label": {
                    "type": "VALUE",
                    "data": null
                },
                "n_jobs": {
                    "type": "VALUE",
                    "data": -1
                },
                "metric": {
                    "type": "VALUE",
                    "data": "f1Macro"
                }
            }
        },
        {
            "type": "PRIMITIVE",
            "primitive": {
                "id": "8d38b340-f83f-4877-baaa-162f8e551736",
                "version": "0.3.0",
                "python_path": "d3m.primitives.data_transformation.construct_predictions.Common",
                "name": "Construct pipeline predictions output"
            },
            "arguments": {
                "inputs": {
                    "type": "CONTAINER",
                    "data": "steps.13.produce"
                },
                "reference": {
                    "type": "CONTAINER",
                    "data": "steps.2.produce"
                }
            },
            "outputs": [
                {
                    "id": "produce"
                }
            ]
        }
    ],
    "digest": "48b62a88c750b09ae953b636721c95fed85a48f801d32f82c8d103164f45d37d"
}
