{
    "id":"6531b053-402c-4a64-b326-0ef0edf49f33",
    "schema":"https://metadata.datadrivendiscovery.org/schemas/v0/pipeline.json",
    "created":"2019-11-25T18:55:27.255002Z",
    "inputs":[
        {
            "name":"input dataset"
        }
    ],
    "outputs":[
        {
            "data":"steps.18.produce",
            "name":"predictions of input dataset"
        }
    ],
    "steps":[
        {
            "type":"PRIMITIVE",
            "primitive":{
                "id":"dsbox-featurizer-do-nothing-dataset-version",
                "version":"1.5.3",
                "python_path":"d3m.primitives.data_preprocessing.do_nothing_for_dataset.DSBOX",
                "name":"DSBox do-nothing primitive dataset version",
                "digest":"22914373907ffddd7faed28b9aaf5e72482755b5953a49fc4289bb4aa2520688"
            },
            "arguments":{
                "inputs":{
                    "type":"CONTAINER",
                    "data":"inputs.0"
                }
            },
            "outputs":[
                {
                    "id":"produce"
                }
            ]
        },
        {
            "type":"PRIMITIVE",
            "primitive":{
                "id":"f31f8c1f-d1c5-43e5-a4b2-2ae4a761ef2e",
                "version":"0.2.0",
                "python_path":"d3m.primitives.data_transformation.denormalize.Common",
                "name":"Denormalize datasets",
                "digest":"77f4ad3affd17b2b1053aebdbb172911797eec89a0eccbb8d07093c7ebfeb393"
            },
            "arguments":{
                "inputs":{
                    "type":"CONTAINER",
                    "data":"steps.0.produce"
                }
            },
            "outputs":[
                {
                    "id":"produce"
                }
            ]
        },
        {
            "type":"PRIMITIVE",
            "primitive":{
                "id":"4b42ce1e-9b98-4a25-b68e-fad13311eb65",
                "version":"0.3.0",
                "python_path":"d3m.primitives.data_transformation.dataset_to_dataframe.Common",
                "name":"Extract a DataFrame from a Dataset",
                "digest":"d276cbf84a7208b600ff3e67cc8503120fb969c8e6a0d88f1a1983f95e038e7b"
            },
            "arguments":{
                "inputs":{
                    "type":"CONTAINER",
                    "data":"steps.1.produce"
                }
            },
            "outputs":[
                {
                    "id":"produce"
                }
            ]
        },
        {
            "type":"PRIMITIVE",
            "primitive":{
                "id":"4503a4c6-42f7-45a1-a1d4-ed69699cf5e1",
                "version":"0.3.0",
                "python_path":"d3m.primitives.data_transformation.extract_columns_by_semantic_types.Common",
                "name":"Extracts columns by semantic type",
                "digest":"bf6c1d0253ef856b6780ca40861634d0662b400c44acad35de0712891e886986"
            },
            "arguments":{
                "inputs":{
                    "type":"CONTAINER",
                    "data":"steps.2.produce"
                }
            },
            "outputs":[
                {
                    "id":"produce"
                }
            ],
            "hyperparams":{
                "semantic_types":{
                    "type":"VALUE",
                    "data":[
                        "https://metadata.datadrivendiscovery.org/types/PrimaryKey",
                        "https://metadata.datadrivendiscovery.org/types/Attribute"
                    ]
                }
            }
        },
        {
            "type":"PRIMITIVE",
            "primitive":{
                "id":"b2612849-39e4-33ce-bfda-24f3e2cb1e93",
                "version":"1.5.3",
                "python_path":"d3m.primitives.schema_discovery.profiler.DSBOX",
                "name":"DSBox Profiler",
                "digest":"7272173f9b0162044912a6a460ae8cdc660dc4ad72ea9ce6d7477ffe2104c1d0"
            },
            "arguments":{
                "inputs":{
                    "type":"CONTAINER",
                    "data":"steps.3.produce"
                }
            },
            "outputs":[
                {
                    "id":"produce"
                }
            ]
        },
        {
            "type":"PRIMITIVE",
            "primitive":{
                "id":"dsbox-cleaning-featurizer",
                "version":"1.5.3",
                "python_path":"d3m.primitives.data_cleaning.cleaning_featurizer.DSBOX",
                "name":"DSBox Cleaning Featurizer",
                "digest":"28aab294f0c007e93fa4f5b7517aca4cc86c7066d2405c908a91299ada2f0d28"
            },
            "arguments":{
                "inputs":{
                    "type":"CONTAINER",
                    "data":"steps.4.produce"
                }
            },
            "outputs":[
                {
                    "id":"produce"
                }
            ]
        },
        {
            "type":"PRIMITIVE",
            "primitive":{
                "id":"18f0bb42-6350-3753-8f2d-d1c3da70f279",
                "version":"1.5.3",
                "python_path":"d3m.primitives.data_preprocessing.encoder.DSBOX",
                "name":"ISI DSBox Data Encoder",
                "digest":"c095c87aca5daab7865868ca8c6ac8ffd26aa508f7dd2404869c5f5bea6e30ee"
            },
            "arguments":{
                "inputs":{
                    "type":"CONTAINER",
                    "data":"steps.5.produce"
                }
            },
            "outputs":[
                {
                    "id":"produce"
                }
            ]
        },
        {
            "type":"PRIMITIVE",
            "primitive":{
                "id":"7ddf2fd8-2f7f-4e53-96a7-0d9f5aeecf93",
                "version":"1.5.3",
                "python_path":"d3m.primitives.data_transformation.to_numeric.DSBOX",
                "name":"ISI DSBox To Numeric DataFrame",
                "digest":"b1aeaf11edc88bd62142ba3fc8287c08bd1b8767ce18da906f4186baeed4d09e"
            },
            "arguments":{
                "inputs":{
                    "type":"CONTAINER",
                    "data":"steps.5.produce"
                }
            },
            "outputs":[
                {
                    "id":"produce"
                }
            ]
        },
        {
            "type":"PRIMITIVE",
            "primitive":{
                "id":"7894b699-61e9-3a50-ac9f-9bc510466667",
                "version":"1.5.3",
                "python_path":"d3m.primitives.data_preprocessing.mean_imputation.DSBOX",
                "name":"DSBox Mean Imputer",
                "digest":"048a96c7c4f49751fef738b0be218930a814f337788317afe2d950f9a3fe03fa"
            },
            "arguments":{
                "inputs":{
                    "type":"CONTAINER",
                    "data":"steps.7.produce"
                }
            },
            "outputs":[
                {
                    "id":"produce"
                }
            ]
        },
        {
            "type":"PRIMITIVE",
            "primitive":{
                "id":"dsbox-multi-table-feature-scaler",
                "version":"1.5.3",
                "python_path":"d3m.primitives.normalization.iqr_scaler.DSBOX",
                "name":"DSBox feature scaler",
                "digest":"e6aae6e4e585e62d792ce1f575ee492e9be0f4c6324cdde46987bfdb0731e3b5"
            },
            "arguments":{
                "inputs":{
                    "type":"CONTAINER",
                    "data":"steps.8.produce"
                }
            },
            "outputs":[
                {
                    "id":"produce"
                }
            ]
        },
        {
            "type":"PRIMITIVE",
            "primitive":{
                "id":"dsbox-featurizer-do-nothing",
                "version":"1.5.3",
                "python_path":"d3m.primitives.data_preprocessing.do_nothing.DSBOX",
                "name":"DSBox do-nothing primitive",
                "digest":"49e040c48dc0e624f8fc6cc29f36cd9211076167b877e35c5379ed34ee984a62"
            },
            "arguments":{
                "inputs":{
                    "type":"CONTAINER",
                    "data":"steps.9.produce"
                }
            },
            "outputs":[
                {
                    "id":"produce"
                }
            ]
        },
        {
            "type":"PRIMITIVE",
            "primitive":{
                "id":"4503a4c6-42f7-45a1-a1d4-ed69699cf5e1",
                "version":"0.3.0",
                "python_path":"d3m.primitives.data_transformation.extract_columns_by_semantic_types.Common",
                "name":"Extracts columns by semantic type",
                "digest":"bf6c1d0253ef856b6780ca40861634d0662b400c44acad35de0712891e886986"
            },
            "arguments":{
                "inputs":{
                    "type":"CONTAINER",
                    "data":"steps.2.produce"
                }
            },
            "outputs":[
                {
                    "id":"produce"
                }
            ],
            "hyperparams":{
                "semantic_types":{
                    "type":"VALUE",
                    "data":[
                        "https://metadata.datadrivendiscovery.org/types/TrueTarget"
                    ]
                }
            }
        },
        {
            "type":"PRIMITIVE",
            "primitive":{
                "id":"7ddf2fd8-2f7f-4e53-96a7-0d9f5aeecf93",
                "version":"1.5.3",
                "python_path":"d3m.primitives.data_transformation.to_numeric.DSBOX",
                "name":"ISI DSBox To Numeric DataFrame",
                "digest":"b1aeaf11edc88bd62142ba3fc8287c08bd1b8767ce18da906f4186baeed4d09e"
            },
            "arguments":{
                "inputs":{
                    "type":"CONTAINER",
                    "data":"steps.11.produce"
                }
            },
            "outputs":[
                {
                    "id":"produce"
                }
            ],
            "hyperparams":{
                "drop_non_numeric_columns":{
                    "type":"VALUE",
                    "data":false
                }
            }
        },
        {
            "type":"PRIMITIVE",
            "primitive":{
                "id":"dsbox-featurizer-do-nothing",
                "version":"1.5.3",
                "python_path":"d3m.primitives.data_preprocessing.do_nothing.DSBOX",
                "name":"DSBox do-nothing primitive",
                "digest":"49e040c48dc0e624f8fc6cc29f36cd9211076167b877e35c5379ed34ee984a62"
            },
            "arguments":{
                "inputs":{
                    "type":"CONTAINER",
                    "data":"steps.10.produce"
                }
            },
            "outputs":[
                {
                    "id":"produce"
                }
            ]
        },
        {
            "type":"PRIMITIVE",
            "primitive":{
                "id":"a323b46a-6c15-373e-91b4-20efbd65402f",
                "version":"2019.6.7",
                "python_path":"d3m.primitives.classification.linear_discriminant_analysis.SKlearn",
                "name":"sklearn.discriminant_analysis.LinearDiscriminantAnalysis",
                "digest":"82036aed5f1356cf97e16a9c412235298af5df47a33d9b7ec32b7aa20d67ed76"
            },
            "arguments":{
                "inputs":{
                    "type":"CONTAINER",
                    "data":"steps.13.produce"
                },
                "outputs":{
                    "type":"CONTAINER",
                    "data":"steps.12.produce"
                }
            },
            "outputs":[
                {
                    "id":"produce"
                }
            ],
            "hyperparams":{
                "add_index_columns":{
                    "type":"VALUE",
                    "data":true
                },
                "return_result":{
                    "type":"VALUE",
                    "data":"new"
                },
                "use_semantic_types":{
                    "type":"VALUE",
                    "data":true
                }
            }
        },
        {
            "type":"PRIMITIVE",
            "primitive":{
                "id":"90e7b335-5af0-35ad-932c-9c771fe84693",
                "version":"2019.6.7",
                "python_path":"d3m.primitives.classification.nearest_centroid.SKlearn",
                "name":"sklearn.neighbors.nearest_centroid.NearestCentroid",
                "digest":"54d16e41fffb83e0fe47322a5ae01dcb960b0f2dea5f96427b6f86e29b75d1f1"
            },
            "arguments":{
                "inputs":{
                    "type":"CONTAINER",
                    "data":"steps.13.produce"
                },
                "outputs":{
                    "type":"CONTAINER",
                    "data":"steps.12.produce"
                }
            },
            "outputs":[
                {
                    "id":"produce"
                }
            ],
            "hyperparams":{
                "add_index_columns":{
                    "type":"VALUE",
                    "data":true
                },
                "return_result":{
                    "type":"VALUE",
                    "data":"new"
                },
                "use_semantic_types":{
                    "type":"VALUE",
                    "data":true
                }
            }
        },
        {
            "type":"PRIMITIVE",
            "primitive":{
                "id":"b9c81b40-8ed1-3b23-80cf-0d6fe6863962",
                "version":"2019.6.7",
                "python_path":"d3m.primitives.classification.logistic_regression.SKlearn",
                "name":"sklearn.linear_model.logistic.LogisticRegression",
                "digest":"c91d38cd26c4215b3809fa419d6a4de5f33f54b181fd0e931b861477b57a7014"
            },
            "arguments":{
                "inputs":{
                    "type":"CONTAINER",
                    "data":"steps.13.produce"
                },
                "outputs":{
                    "type":"CONTAINER",
                    "data":"steps.12.produce"
                }
            },
            "outputs":[
                {
                    "id":"produce"
                }
            ],
            "hyperparams":{
                "add_index_columns":{
                    "type":"VALUE",
                    "data":true
                },
                "return_result":{
                    "type":"VALUE",
                    "data":"new"
                },
                "use_semantic_types":{
                    "type":"VALUE",
                    "data":true
                }
            }
        },
        {
            "type":"PRIMITIVE",
            "primitive":{
                "id":"dsbox-vertical-concat",
                "version":"1.5.3",
                "python_path":"d3m.primitives.data_preprocessing.vertical_concatenate.DSBOX",
                "name":"DSBox vertically concat",
                "digest":"04d734a993c553b23f27d5cbfbffd7d1eaff6bfd6e456b02ab9382ebb43644fd"
            },
            "arguments":{
                "inputs":{
                    "type":"CONTAINER",
                    "data":[
                        "steps.14.produce",
                        "steps.15.produce",
                        "steps.16.produce"
                    ]
                }
            },
            "outputs":[
                {
                    "id":"produce"
                }
            ]
        },
        {
            "type":"PRIMITIVE",
            "primitive":{
                "id":"dsbox-ensemble-voting",
                "version":"1.5.3",
                "python_path":"d3m.primitives.classification.ensemble_voting.DSBOX",
                "name":"DSBox ensemble voting",
                "digest":"9f2b34943838c27fd57bfa52b4f446818b6193f859b4a8052ef464fca5a8cbd9"
            },
            "arguments":{
                "inputs":{
                    "type":"CONTAINER",
                    "data":"steps.17.produce"
                }
            },
            "outputs":[
                {
                    "id":"produce"
                }
            ]
        }
    ],
    "name":"default_classification_template:140430681365168",
    "description":"",
    "digest":"f111fbb9380c65d9df60ed9d61eb21690a5d16977b7ae350169731829d6788c3"
}