{
  "context": "TESTING",
  "created": "2019-02-12T01:33:29.921236Z",
  "id": "b7a24816-2518-4073-9c45-b97f2b2fee30",
  "inputs": [
    {
      "name": "inputs"
    }
  ],
  "outputs": [
    {
      "data": "steps.7.produce",
      "name": "output predictions"
    }
  ],
  "schema": "https://metadata.datadrivendiscovery.org/schemas/v0/pipeline.json",
  "steps": [
    {
      "arguments": {
        "inputs": {
          "data": "inputs.0",
          "type": "CONTAINER"
        }
      },
      "outputs": [
        {
          "id": "produce"
        }
      ],
      "primitive": {
        "id": "4b42ce1e-9b98-4a25-b68e-fad13311eb65",
        "name": "Extract a DataFrame from a Dataset",
        "python_path": "d3m.primitives.data_transformation.dataset_to_dataframe.Common",
        "version": "0.3.0"
      },
      "type": "PRIMITIVE"
    },
    {
      "arguments": {
        "inputs": {
          "data": "steps.0.produce",
          "type": "CONTAINER"
        }
      },
      "hyperparams": {
        "parse_semantic_types": {
          "data": [
            "http://schema.org/Boolean",
            "http://schema.org/Integer",
            "http://schema.org/Float",
            "https://metadata.datadrivendiscovery.org/types/FloatVector",
            "http://schema.org/DateTime"
          ],
          "type": "VALUE"
        }
      },
      "outputs": [
        {
          "id": "produce"
        }
      ],
      "primitive": {
        "id": "d510cb7a-1782-4f51-b44c-58f0236e47c7",
        "name": "Parses strings into their types",
        "python_path": "d3m.primitives.data_transformation.column_parser.DataFrameCommon",
        "version": "0.5.0"
      },
      "type": "PRIMITIVE"
    },
    {
      "arguments": {
        "inputs": {
          "data": "steps.1.produce",
          "type": "CONTAINER"
        }
      },
      "hyperparams": {
        "semantic_types": {
          "data": [
            "https://metadata.datadrivendiscovery.org/types/CategoricalData"
          ],
          "type": "VALUE"
        }
      },
      "outputs": [
        {
          "id": "produce"
        }
      ],
      "primitive": {
        "id": "4503a4c6-42f7-45a1-a1d4-ed69699cf5e1",
        "name": "Extracts columns by semantic type",
        "python_path": "d3m.primitives.data_transformation.extract_columns_by_semantic_types.DataFrameCommon",
        "version": "0.2.0"
      },
      "type": "PRIMITIVE"
    },
    {
      "arguments": {
        "inputs": {
          "data": "steps.1.produce",
          "type": "CONTAINER"
        }
      },
      "hyperparams": {
        "exclude_columns": {
          "data": [
            0
          ],
          "type": "VALUE"
        },
        "semantic_types": {
          "data": [
            "http://schema.org/Integer",
            "http://schema.org/Float"
          ],
          "type": "VALUE"
        }
      },
      "outputs": [
        {
          "id": "produce"
        }
      ],
      "primitive": {
        "id": "4503a4c6-42f7-45a1-a1d4-ed69699cf5e1",
        "name": "Extracts columns by semantic type",
        "python_path": "d3m.primitives.data_transformation.extract_columns_by_semantic_types.DataFrameCommon",
        "version": "0.2.0"
      },
      "type": "PRIMITIVE"
    },
    {
      "arguments": {
        "inputs": {
          "data": "steps.0.produce",
          "type": "CONTAINER"
        }
      },
      "hyperparams": {
        "semantic_types": {
          "data": [
            "https://metadata.datadrivendiscovery.org/types/TrueTarget"
          ],
          "type": "VALUE"
        }
      },
      "outputs": [
        {
          "id": "produce"
        }
      ],
      "primitive": {
        "id": "4503a4c6-42f7-45a1-a1d4-ed69699cf5e1",
        "name": "Extracts columns by semantic type",
        "python_path": "d3m.primitives.data_transformation.extract_columns_by_semantic_types.DataFrameCommon",
        "version": "0.2.0"
      },
      "type": "PRIMITIVE"
    },
    {
      "arguments": {
        "inputs": {
          "data": "steps.3.produce",
          "type": "CONTAINER"
        }
      },
      "hyperparams": {
        "return_result": {
          "data": "replace",
          "type": "VALUE"
        },
        "use_semantic_types": {
          "data": true,
          "type": "VALUE"
        }
      },
      "outputs": [
        {
          "id": "produce"
        }
      ],
      "primitive": {
        "id": "d016df89-de62-3c53-87ed-c06bb6a23cde",
        "name": "sklearn.impute.SimpleImputer",
        "python_path": "d3m.primitives.data_cleaning.imputer.SKlearn",
        "version": "2019.4.4"
      },
      "type": "PRIMITIVE"
    },
    {
      "arguments": {
        "inputs": {
          "data": "steps.5.produce",
          "type": "CONTAINER"
        },
        "outputs": {
          "data": "steps.4.produce",
          "type": "CONTAINER"
        }
      },
      "hyperparams": {
        "return_result": {
          "data": "replace",
          "type": "VALUE"
        }
      },
      "outputs": [
        {
          "id": "produce"
        }
      ],
      "primitive": {
        "id": "7476950e-4373-4cf5-a852-7e16afb8e098",
        "name": "XGBoost DART classifier",
        "python_path": "d3m.primitives.classification.xgboost_dart.DataFrameCommon",
        "version": "0.1.0"
      },
      "type": "PRIMITIVE"
    },
    {
      "arguments": {
        "inputs": {
          "data": "steps.6.produce",
          "type": "CONTAINER"
        },
        "reference": {
          "data": "steps.1.produce",
          "type": "CONTAINER"
        }
      },
      "outputs": [
        {
          "id": "produce"
        }
      ],
      "primitive": {
        "id": "8d38b340-f83f-4877-baaa-162f8e551736",
        "name": "Construct pipeline predictions output",
        "python_path": "d3m.primitives.data_transformation.construct_predictions.DataFrameCommon",
        "version": "0.3.0"
      },
      "type": "PRIMITIVE"
    }
  ]
}
