{
  "algorithm_types": [
    "DECISION_TREE"
  ],
  "name": "sklearn.tree.tree.DecisionTreeClassifier",
  "primitive_family": "CLASSIFICATION",
  "python_path": "d3m.primitives.classification.decision_tree.SKlearn",
  "source": {
    "name": "JPL",
    "contact": "mailto:shah@jpl.nasa.gov",
    "uris": [
      "https://gitlab.com/datadrivendiscovery/sklearn-wrap/issues",
      "https://scikit-learn.org/stable/modules/generated/sklearn.tree.DecisionTreeClassifier.html"
    ]
  },
  "version": "2019.11.13",
  "id": "e20d003d-6a9f-35b0-b4b5-20e42b30282a",
  "hyperparams_to_tune": [
    "max_depth",
    "min_samples_split",
    "min_samples_leaf",
    "max_features"
  ],
  "installation": [
    {
      "type": "PIP",
      "package_uri": "git+https://gitlab.com/datadrivendiscovery/sklearn-wrap.git@4a2cfd1dc749bb13ce807b2bf2436a45cd49c695#egg=sklearn_wrap"
    }
  ],
  "schema": "https://metadata.datadrivendiscovery.org/schemas/v0/primitive.json",
  "original_python_path": "sklearn_wrap.SKDecisionTreeClassifier.SKDecisionTreeClassifier",
  "primitive_code": {
    "class_type_arguments": {
      "Inputs": "d3m.container.pandas.DataFrame",
      "Outputs": "d3m.container.pandas.DataFrame",
      "Params": "sklearn_wrap.SKDecisionTreeClassifier.Params",
      "Hyperparams": "sklearn_wrap.SKDecisionTreeClassifier.Hyperparams"
    },
    "interfaces_version": "2020.1.9",
    "interfaces": [
      "supervised_learning.SupervisedLearnerPrimitiveBase",
      "base.PrimitiveBase",
      "base.ProbabilisticCompositionalityMixin"
    ],
    "hyperparams": {
      "criterion": {
        "type": "d3m.metadata.hyperparams.Enumeration",
        "default": "gini",
        "structural_type": "str",
        "semantic_types": [
          "https://metadata.datadrivendiscovery.org/types/TuningParameter"
        ],
        "description": "The function to measure the quality of a split. Supported criteria are \"gini\" for the Gini impurity and \"entropy\" for the information gain.",
        "values": [
          "gini",
          "entropy"
        ]
      },
      "splitter": {
        "type": "d3m.metadata.hyperparams.Enumeration",
        "default": "best",
        "structural_type": "str",
        "semantic_types": [
          "https://metadata.datadrivendiscovery.org/types/TuningParameter"
        ],
        "description": "The strategy used to choose the split at each node. Supported strategies are \"best\" to choose the best split and \"random\" to choose the best random split.",
        "values": [
          "best",
          "random"
        ]
      },
      "max_depth": {
        "type": "d3m.metadata.hyperparams.Union",
        "default": null,
        "structural_type": "typing.Union[NoneType, int]",
        "semantic_types": [
          "https://metadata.datadrivendiscovery.org/types/TuningParameter"
        ],
        "description": "The maximum depth of the tree. If None, then nodes are expanded until all leaves are pure or until all leaves contain less than min_samples_split samples.",
        "configuration": {
          "int": {
            "type": "d3m.metadata.hyperparams.Bounded",
            "default": 10,
            "structural_type": "int",
            "semantic_types": [
              "https://metadata.datadrivendiscovery.org/types/TuningParameter"
            ],
            "lower": 0,
            "upper": null,
            "lower_inclusive": true,
            "upper_inclusive": false
          },
          "none": {
            "type": "d3m.metadata.hyperparams.Constant",
            "default": null,
            "structural_type": "NoneType",
            "semantic_types": [
              "https://metadata.datadrivendiscovery.org/types/TuningParameter"
            ]
          }
        }
      },
      "min_samples_split": {
        "type": "d3m.metadata.hyperparams.Union",
        "default": 2,
        "structural_type": "typing.Union[float, int]",
        "semantic_types": [
          "https://metadata.datadrivendiscovery.org/types/TuningParameter"
        ],
        "description": "The minimum number of samples required to split an internal node:  - If int, then consider `min_samples_split` as the minimum number. - If float, then `min_samples_split` is a percentage and `ceil(min_samples_split * n_samples)` are the minimum number of samples for each split.  .. versionchanged:: 0.18 Added float values for percentages.",
        "configuration": {
          "absolute": {
            "type": "d3m.metadata.hyperparams.Bounded",
            "default": 2,
            "structural_type": "int",
            "semantic_types": [
              "https://metadata.datadrivendiscovery.org/types/TuningParameter"
            ],
            "lower": 1,
            "upper": null,
            "lower_inclusive": true,
            "upper_inclusive": false
          },
          "percent": {
            "type": "d3m.metadata.hyperparams.Bounded",
            "default": 0.25,
            "structural_type": "float",
            "semantic_types": [
              "https://metadata.datadrivendiscovery.org/types/TuningParameter"
            ],
            "lower": 0,
            "upper": 1,
            "lower_inclusive": true,
            "upper_inclusive": true
          }
        }
      },
      "min_samples_leaf": {
        "type": "d3m.metadata.hyperparams.Union",
        "default": 1,
        "structural_type": "typing.Union[float, int]",
        "semantic_types": [
          "https://metadata.datadrivendiscovery.org/types/TuningParameter"
        ],
        "description": "The minimum number of samples required to be at a leaf node:  - If int, then consider `min_samples_leaf` as the minimum number. - If float, then `min_samples_leaf` is a percentage and `ceil(min_samples_leaf * n_samples)` are the minimum number of samples for each node.  .. versionchanged:: 0.18 Added float values for percentages.",
        "configuration": {
          "absolute": {
            "type": "d3m.metadata.hyperparams.Bounded",
            "default": 1,
            "structural_type": "int",
            "semantic_types": [
              "https://metadata.datadrivendiscovery.org/types/TuningParameter"
            ],
            "lower": 1,
            "upper": null,
            "lower_inclusive": true,
            "upper_inclusive": false
          },
          "percent": {
            "type": "d3m.metadata.hyperparams.Bounded",
            "default": 0.25,
            "structural_type": "float",
            "semantic_types": [
              "https://metadata.datadrivendiscovery.org/types/TuningParameter"
            ],
            "lower": 0,
            "upper": 0.5,
            "lower_inclusive": true,
            "upper_inclusive": true
          }
        }
      },
      "min_weight_fraction_leaf": {
        "type": "d3m.metadata.hyperparams.Bounded",
        "default": 0,
        "structural_type": "float",
        "semantic_types": [
          "https://metadata.datadrivendiscovery.org/types/TuningParameter"
        ],
        "description": "The minimum weighted fraction of the sum total of weights (of all the input samples) required to be at a leaf node. Samples have equal weight when sample_weight is not provided.",
        "lower": 0,
        "upper": 0.5,
        "lower_inclusive": true,
        "upper_inclusive": true
      },
      "max_leaf_nodes": {
        "type": "d3m.metadata.hyperparams.Union",
        "default": null,
        "structural_type": "typing.Union[NoneType, int]",
        "semantic_types": [
          "https://metadata.datadrivendiscovery.org/types/TuningParameter"
        ],
        "description": "Grow a tree with ``max_leaf_nodes`` in best-first fashion. Best nodes are defined as relative reduction in impurity. If None then unlimited number of leaf nodes.",
        "configuration": {
          "int": {
            "type": "d3m.metadata.hyperparams.Bounded",
            "default": 0,
            "structural_type": "int",
            "semantic_types": [
              "https://metadata.datadrivendiscovery.org/types/TuningParameter"
            ],
            "lower": 0,
            "upper": null,
            "lower_inclusive": true,
            "upper_inclusive": false
          },
          "none": {
            "type": "d3m.metadata.hyperparams.Constant",
            "default": null,
            "structural_type": "NoneType",
            "semantic_types": [
              "https://metadata.datadrivendiscovery.org/types/TuningParameter"
            ]
          }
        }
      },
      "max_features": {
        "type": "d3m.metadata.hyperparams.Union",
        "default": null,
        "structural_type": "typing.Union[NoneType, float, int, str]",
        "semantic_types": [
          "https://metadata.datadrivendiscovery.org/types/TuningParameter"
        ],
        "description": "The number of features to consider when looking for the best split:  - If int, then consider `max_features` features at each split. - If float, then `max_features` is a percentage and `int(max_features * n_features)` features are considered at each split. - If \"auto\", then `max_features=sqrt(n_features)`. - If \"sqrt\", then `max_features=sqrt(n_features)`. - If \"log2\", then `max_features=log2(n_features)`. - If None, then `max_features=n_features`.  Note: the search for a split does not stop until at least one valid partition of the node samples is found, even if it requires to effectively inspect more than ``max_features`` features.",
        "configuration": {
          "specified_int": {
            "type": "d3m.metadata.hyperparams.Bounded",
            "default": 0,
            "structural_type": "int",
            "semantic_types": [
              "https://metadata.datadrivendiscovery.org/types/TuningParameter"
            ],
            "lower": 0,
            "upper": null,
            "lower_inclusive": true,
            "upper_inclusive": false
          },
          "calculated": {
            "type": "d3m.metadata.hyperparams.Enumeration",
            "default": "auto",
            "structural_type": "str",
            "semantic_types": [
              "https://metadata.datadrivendiscovery.org/types/TuningParameter"
            ],
            "values": [
              "auto",
              "sqrt",
              "log2"
            ]
          },
          "none": {
            "type": "d3m.metadata.hyperparams.Constant",
            "default": null,
            "structural_type": "NoneType",
            "semantic_types": [
              "https://metadata.datadrivendiscovery.org/types/TuningParameter"
            ]
          },
          "percent": {
            "type": "d3m.metadata.hyperparams.Bounded",
            "default": 0.25,
            "structural_type": "float",
            "semantic_types": [
              "https://metadata.datadrivendiscovery.org/types/TuningParameter"
            ],
            "lower": 0,
            "upper": 1,
            "lower_inclusive": true,
            "upper_inclusive": true
          }
        }
      },
      "min_impurity_decrease": {
        "type": "d3m.metadata.hyperparams.Bounded",
        "default": 0.0,
        "structural_type": "float",
        "semantic_types": [
          "https://metadata.datadrivendiscovery.org/types/TuningParameter"
        ],
        "description": "A node will be split if this split induces a decrease of the impurity greater than or equal to this value.  The weighted impurity decrease equation is the following::  N_t / N * (impurity - N_t_R / N_t * right_impurity - N_t_L / N_t * left_impurity)  where ``N`` is the total number of samples, ``N_t`` is the number of samples at the current node, ``N_t_L`` is the number of samples in the left child, and ``N_t_R`` is the number of samples in the right child.  ``N``, ``N_t``, ``N_t_R`` and ``N_t_L`` all refer to the weighted sum, if ``sample_weight`` is passed.  .. versionadded:: 0.19 ",
        "lower": 0.0,
        "upper": null,
        "lower_inclusive": true,
        "upper_inclusive": false
      },
      "class_weight": {
        "type": "d3m.metadata.hyperparams.Union",
        "default": null,
        "structural_type": "typing.Union[NoneType, str]",
        "semantic_types": [
          "https://metadata.datadrivendiscovery.org/types/TuningParameter"
        ],
        "description": "Weights associated with classes in the form ``{class_label: weight}``. If not given, all classes are supposed to have weight one. For multi-output problems, a list of dicts can be provided in the same order as the columns of y.  The \"balanced\" mode uses the values of y to automatically adjust weights inversely proportional to class frequencies in the input data as ``n_samples / (n_classes * np.bincount(y))``  For multi-output, the weights of each column of y will be multiplied.  Note that these weights will be multiplied with sample_weight (passed through the fit method) if sample_weight is specified.",
        "configuration": {
          "str": {
            "type": "d3m.metadata.hyperparams.Constant",
            "default": "balanced",
            "structural_type": "str",
            "semantic_types": [
              "https://metadata.datadrivendiscovery.org/types/TuningParameter"
            ]
          },
          "none": {
            "type": "d3m.metadata.hyperparams.Constant",
            "default": null,
            "structural_type": "NoneType",
            "semantic_types": [
              "https://metadata.datadrivendiscovery.org/types/TuningParameter"
            ]
          }
        }
      },
      "presort": {
        "type": "d3m.metadata.hyperparams.UniformBool",
        "default": false,
        "structural_type": "bool",
        "semantic_types": [
          "https://metadata.datadrivendiscovery.org/types/ControlParameter"
        ],
        "description": "Whether to presort the data to speed up the finding of best splits in fitting. For the default settings of a decision tree on large datasets, setting this to true may slow down the training process. When using either a smaller dataset or a restricted depth, this may speed up the training."
      },
      "use_inputs_columns": {
        "type": "d3m.metadata.hyperparams.Set",
        "default": [],
        "structural_type": "typing.Sequence[int]",
        "semantic_types": [
          "https://metadata.datadrivendiscovery.org/types/ControlParameter"
        ],
        "description": "A set of column indices to force primitive to use as training input. If any specified column cannot be parsed, it is skipped.",
        "elements": {
          "type": "d3m.metadata.hyperparams.Hyperparameter",
          "default": -1,
          "structural_type": "int",
          "semantic_types": []
        },
        "is_configuration": false,
        "min_size": 0
      },
      "use_outputs_columns": {
        "type": "d3m.metadata.hyperparams.Set",
        "default": [],
        "structural_type": "typing.Sequence[int]",
        "semantic_types": [
          "https://metadata.datadrivendiscovery.org/types/ControlParameter"
        ],
        "description": "A set of column indices to force primitive to use as training target. If any specified column cannot be parsed, it is skipped.",
        "elements": {
          "type": "d3m.metadata.hyperparams.Hyperparameter",
          "default": -1,
          "structural_type": "int",
          "semantic_types": []
        },
        "is_configuration": false,
        "min_size": 0
      },
      "exclude_inputs_columns": {
        "type": "d3m.metadata.hyperparams.Set",
        "default": [],
        "structural_type": "typing.Sequence[int]",
        "semantic_types": [
          "https://metadata.datadrivendiscovery.org/types/ControlParameter"
        ],
        "description": "A set of column indices to not use as training inputs. Applicable only if \"use_columns\" is not provided.",
        "elements": {
          "type": "d3m.metadata.hyperparams.Hyperparameter",
          "default": -1,
          "structural_type": "int",
          "semantic_types": []
        },
        "is_configuration": false,
        "min_size": 0
      },
      "exclude_outputs_columns": {
        "type": "d3m.metadata.hyperparams.Set",
        "default": [],
        "structural_type": "typing.Sequence[int]",
        "semantic_types": [
          "https://metadata.datadrivendiscovery.org/types/ControlParameter"
        ],
        "description": "A set of column indices to not use as training target. Applicable only if \"use_columns\" is not provided.",
        "elements": {
          "type": "d3m.metadata.hyperparams.Hyperparameter",
          "default": -1,
          "structural_type": "int",
          "semantic_types": []
        },
        "is_configuration": false,
        "min_size": 0
      },
      "return_result": {
        "type": "d3m.metadata.hyperparams.Enumeration",
        "default": "new",
        "structural_type": "str",
        "semantic_types": [
          "https://metadata.datadrivendiscovery.org/types/ControlParameter"
        ],
        "description": "Should parsed columns be appended, should they replace original columns, or should only parsed columns be returned? This hyperparam is ignored if use_semantic_types is set to false.",
        "values": [
          "append",
          "replace",
          "new"
        ]
      },
      "use_semantic_types": {
        "type": "d3m.metadata.hyperparams.UniformBool",
        "default": false,
        "structural_type": "bool",
        "semantic_types": [
          "https://metadata.datadrivendiscovery.org/types/ControlParameter"
        ],
        "description": "Controls whether semantic_types metadata will be used for filtering columns in input dataframe. Setting this to false makes the code ignore return_result and will produce only the output dataframe"
      },
      "add_index_columns": {
        "type": "d3m.metadata.hyperparams.UniformBool",
        "default": false,
        "structural_type": "bool",
        "semantic_types": [
          "https://metadata.datadrivendiscovery.org/types/ControlParameter"
        ],
        "description": "Also include primary index columns if input data has them. Applicable only if \"return_result\" is set to \"new\"."
      },
      "error_on_no_input": {
        "type": "d3m.metadata.hyperparams.UniformBool",
        "default": true,
        "structural_type": "bool",
        "semantic_types": [
          "https://metadata.datadrivendiscovery.org/types/ControlParameter"
        ],
        "description": "Throw an exception if no input column is selected/provided. Defaults to true to behave like sklearn. To prevent pipelines from breaking set this to False."
      },
      "return_semantic_type": {
        "type": "d3m.metadata.hyperparams.Enumeration",
        "default": "https://metadata.datadrivendiscovery.org/types/PredictedTarget",
        "structural_type": "str",
        "semantic_types": [
          "https://metadata.datadrivendiscovery.org/types/ControlParameter"
        ],
        "description": "Decides what semantic type to attach to generated output",
        "values": [
          "https://metadata.datadrivendiscovery.org/types/Attribute",
          "https://metadata.datadrivendiscovery.org/types/ConstructedAttribute",
          "https://metadata.datadrivendiscovery.org/types/PredictedTarget"
        ]
      }
    },
    "arguments": {
      "hyperparams": {
        "type": "sklearn_wrap.SKDecisionTreeClassifier.Hyperparams",
        "kind": "RUNTIME"
      },
      "random_seed": {
        "type": "int",
        "kind": "RUNTIME",
        "default": 0
      },
      "docker_containers": {
        "type": "typing.Union[NoneType, typing.Dict[str, d3m.primitive_interfaces.base.DockerContainer]]",
        "kind": "RUNTIME",
        "default": null
      },
      "timeout": {
        "type": "typing.Union[NoneType, float]",
        "kind": "RUNTIME",
        "default": null
      },
      "iterations": {
        "type": "typing.Union[NoneType, int]",
        "kind": "RUNTIME",
        "default": null
      },
      "produce_methods": {
        "type": "typing.Sequence[str]",
        "kind": "RUNTIME"
      },
      "inputs": {
        "type": "d3m.container.pandas.DataFrame",
        "kind": "PIPELINE"
      },
      "outputs": {
        "type": "d3m.container.pandas.DataFrame",
        "kind": "PIPELINE"
      },
      "params": {
        "type": "sklearn_wrap.SKDecisionTreeClassifier.Params",
        "kind": "RUNTIME"
      }
    },
    "class_methods": {},
    "instance_methods": {
      "__init__": {
        "kind": "OTHER",
        "arguments": [
          "hyperparams",
          "random_seed",
          "docker_containers"
        ],
        "returns": "NoneType"
      },
      "fit": {
        "kind": "OTHER",
        "arguments": [
          "timeout",
          "iterations"
        ],
        "returns": "d3m.primitive_interfaces.base.CallResult[NoneType]",
        "description": "Fits primitive using inputs and outputs (if any) using currently set training data.\n\nThe returned value should be a ``CallResult`` object with ``value`` set to ``None``.\n\nIf ``fit`` has already been called in the past on different training data,\nthis method fits it **again from scratch** using currently set training data.\n\nOn the other hand, caller can call ``fit`` multiple times on the same training data\nto continue fitting.\n\nIf ``fit`` fully fits using provided training data, there is no point in making further\ncalls to this method with same training data, and in fact further calls can be noops,\nor a primitive can decide to fully refit from scratch.\n\nIn the case fitting can continue with same training data (even if it is maybe not reasonable,\nbecause the internal metric primitive is using looks like fitting will be degrading), if ``fit``\nis called again (without setting training data), the primitive has to continue fitting.\n\nCaller can provide ``timeout`` information to guide the length of the fitting process.\nIdeally, a primitive should adapt its fitting process to try to do the best fitting possible\ninside the time allocated. If this is not possible and the primitive reaches the timeout\nbefore fitting, it should raise a ``TimeoutError`` exception to signal that fitting was\nunsuccessful in the given time. The state of the primitive after the exception should be\nas the method call has never happened and primitive should continue to operate normally.\nThe purpose of ``timeout`` is to give opportunity to a primitive to cleanly manage\nits state instead of interrupting execution from outside. Maintaining stable internal state\nshould have precedence over respecting the ``timeout`` (caller can terminate the misbehaving\nprimitive from outside anyway). If a longer ``timeout`` would produce different fitting,\nthen ``CallResult``'s ``has_finished`` should be set to ``False``.\n\nSome primitives have internal fitting iterations (for example, epochs). For those, caller\ncan provide how many of primitive's internal iterations should a primitive do before returning.\nPrimitives should make iterations as small as reasonable. If ``iterations`` is ``None``,\nthen there is no limit on how many iterations the primitive should do and primitive should\nchoose the best amount of iterations on its own (potentially controlled through\nhyper-parameters). If ``iterations`` is a number, a primitive has to do those number of\niterations (even if not reasonable), if possible. ``timeout`` should still be respected\nand potentially less iterations can be done because of that. Primitives with internal\niterations should make ``CallResult`` contain correct values.\n\nFor primitives which do not have internal iterations, any value of ``iterations``\nmeans that they should fit fully, respecting only ``timeout``.\n\nParameters\n----------\ntimeout : float\n    A maximum time this primitive should be fitting during this method call, in seconds.\niterations : int\n    How many of internal iterations should the primitive do.\n\nReturns\n-------\nCallResult[None]\n    A ``CallResult`` with ``None`` value."
      },
      "fit_multi_produce": {
        "kind": "OTHER",
        "arguments": [
          "produce_methods",
          "inputs",
          "outputs",
          "timeout",
          "iterations"
        ],
        "returns": "d3m.primitive_interfaces.base.MultiCallResult",
        "description": "A method calling ``fit`` and after that multiple produce methods at once.\n\nThis method allows primitive author to implement an optimized version of both fitting\nand producing a primitive on same data.\n\nIf any additional method arguments are added to primitive's ``set_training_data`` method\nor produce method(s), or removed from them, they have to be added to or removed from this\nmethod as well. This method should accept an union of all arguments accepted by primitive's\n``set_training_data`` method and produce method(s) and then use them accordingly when\ncomputing results.\n\nThe default implementation of this method just calls first ``set_training_data`` method,\n``fit`` method, and all produce methods listed in ``produce_methods`` in order and is\npotentially inefficient.\n\nParameters\n----------\nproduce_methods : Sequence[str]\n    A list of names of produce methods to call.\ninputs : Inputs\n    The inputs given to ``set_training_data`` and all produce methods.\noutputs : Outputs\n    The outputs given to ``set_training_data``.\ntimeout : float\n    A maximum time this primitive should take to both fit the primitive and produce outputs\n    for all produce methods listed in ``produce_methods`` argument, in seconds.\niterations : int\n    How many of internal iterations should the primitive do for both fitting and producing\n    outputs of all produce methods.\n\nReturns\n-------\nMultiCallResult\n    A dict of values for each produce method wrapped inside ``MultiCallResult``."
      },
      "get_params": {
        "kind": "OTHER",
        "arguments": [],
        "returns": "sklearn_wrap.SKDecisionTreeClassifier.Params",
        "description": "Returns parameters of this primitive.\n\nParameters are all parameters of the primitive which can potentially change during a life-time of\na primitive. Parameters which cannot are passed through constructor.\n\nParameters should include all data which is necessary to create a new instance of this primitive\nbehaving exactly the same as this instance, when the new instance is created by passing the same\nparameters to the class constructor and calling ``set_params``.\n\nNo other arguments to the method are allowed (except for private arguments).\n\nReturns\n-------\nParams\n    An instance of parameters."
      },
      "log_likelihood": {
        "kind": "OTHER",
        "arguments": [
          "outputs",
          "inputs",
          "timeout",
          "iterations"
        ],
        "returns": "d3m.primitive_interfaces.base.CallResult[Outputs]",
        "description": "Returns log probability of outputs given inputs and params under this primitive:\n\nsum_i(log(p(output_i | input_i, params)))\n\nBy default it calls ``log_likelihoods`` and tries to automatically compute a sum, but subclasses can\nimplement a more efficient or even correct version.\n\nParameters\n----------\noutputs : Outputs\n    The outputs. The number of samples should match ``inputs``.\ninputs : Inputs\n    The inputs. The number of samples should match ``outputs``.\ntimeout : float\n    A maximum time this primitive should take to produce outputs during this method call, in seconds.\niterations : int\n    How many of internal iterations should the primitive do.\n\nReturns\n-------\nCallResult[Outputs]\n    sum_i(log(p(output_i | input_i, params))) wrapped inside ``CallResult``.\n    The number of returned samples is always 1.\n    The number of columns should match the number of target columns in ``outputs``."
      },
      "log_likelihoods": {
        "kind": "OTHER",
        "arguments": [
          "outputs",
          "inputs",
          "timeout",
          "iterations"
        ],
        "returns": "d3m.primitive_interfaces.base.CallResult[typing.Sequence[float]]",
        "description": "Returns log probability of outputs given inputs and params under this primitive:\n\nlog(p(output_i | input_i, params))\n\nParameters\n----------\noutputs : Outputs\n    The outputs. The number of samples should match ``inputs``.\ninputs : Inputs\n    The inputs. The number of samples should match ``outputs``.\ntimeout : float\n    A maximum time this primitive should take to produce outputs during this method call, in seconds.\niterations : int\n    How many of internal iterations should the primitive do.\n\nReturns\n-------\nCallResult[Outputs]\n    log(p(output_i | input_i, params))) wrapped inside ``CallResult``.\n    The number of columns should match the number of target columns in ``outputs``."
      },
      "multi_produce": {
        "kind": "OTHER",
        "arguments": [
          "produce_methods",
          "inputs",
          "timeout",
          "iterations"
        ],
        "returns": "d3m.primitive_interfaces.base.MultiCallResult",
        "description": "A method calling multiple produce methods at once.\n\nWhen a primitive has multiple produce methods it is common that they might compute the\nsame internal results for same inputs but return different representations of those results.\nIf caller is interested in multiple of those representations, calling multiple produce\nmethods might lead to recomputing same internal results multiple times. To address this,\nthis method allows primitive author to implement an optimized version which computes\ninternal results only once for multiple calls of produce methods, but return those different\nrepresentations.\n\nIf any additional method arguments are added to primitive's produce method(s), they have\nto be added to this method as well. This method should accept an union of all arguments\naccepted by primitive's produce method(s) and then use them accordingly when computing\nresults.\n\nThe default implementation of this method just calls all produce methods listed in\n``produce_methods`` in order and is potentially inefficient.\n\nIf primitive should have been fitted before calling this method, but it has not been,\nprimitive should raise a ``PrimitiveNotFittedError`` exception.\n\nParameters\n----------\nproduce_methods : Sequence[str]\n    A list of names of produce methods to call.\ninputs : Inputs\n    The inputs given to all produce methods.\ntimeout : float\n    A maximum time this primitive should take to produce outputs for all produce methods\n    listed in ``produce_methods`` argument, in seconds.\niterations : int\n    How many of internal iterations should the primitive do.\n\nReturns\n-------\nMultiCallResult\n    A dict of values for each produce method wrapped inside ``MultiCallResult``."
      },
      "produce": {
        "kind": "PRODUCE",
        "arguments": [
          "inputs",
          "timeout",
          "iterations"
        ],
        "returns": "d3m.primitive_interfaces.base.CallResult[d3m.container.pandas.DataFrame]",
        "singleton": false,
        "inputs_across_samples": [],
        "description": "Produce primitive's best choice of the output for each of the inputs.\n\nThe output value should be wrapped inside ``CallResult`` object before returning.\n\nIn many cases producing an output is a quick operation in comparison with ``fit``, but not\nall cases are like that. For example, a primitive can start a potentially long optimization\nprocess to compute outputs. ``timeout`` and ``iterations`` can serve as a way for a caller\nto guide the length of this process.\n\nIdeally, a primitive should adapt its call to try to produce the best outputs possible\ninside the time allocated. If this is not possible and the primitive reaches the timeout\nbefore producing outputs, it should raise a ``TimeoutError`` exception to signal that the\ncall was unsuccessful in the given time. The state of the primitive after the exception\nshould be as the method call has never happened and primitive should continue to operate\nnormally. The purpose of ``timeout`` is to give opportunity to a primitive to cleanly\nmanage its state instead of interrupting execution from outside. Maintaining stable internal\nstate should have precedence over respecting the ``timeout`` (caller can terminate the\nmisbehaving primitive from outside anyway). If a longer ``timeout`` would produce\ndifferent outputs, then ``CallResult``'s ``has_finished`` should be set to ``False``.\n\nSome primitives have internal iterations (for example, optimization iterations).\nFor those, caller can provide how many of primitive's internal iterations\nshould a primitive do before returning outputs. Primitives should make iterations as\nsmall as reasonable. If ``iterations`` is ``None``, then there is no limit on\nhow many iterations the primitive should do and primitive should choose the best amount\nof iterations on its own (potentially controlled through hyper-parameters).\nIf ``iterations`` is a number, a primitive has to do those number of iterations,\nif possible. ``timeout`` should still be respected and potentially less iterations\ncan be done because of that. Primitives with internal iterations should make\n``CallResult`` contain correct values.\n\nFor primitives which do not have internal iterations, any value of ``iterations``\nmeans that they should run fully, respecting only ``timeout``.\n\nIf primitive should have been fitted before calling this method, but it has not been,\nprimitive should raise a ``PrimitiveNotFittedError`` exception.\n\nParameters\n----------\ninputs : Inputs\n    The inputs of shape [num_inputs, ...].\ntimeout : float\n    A maximum time this primitive should take to produce outputs during this method call, in seconds.\niterations : int\n    How many of internal iterations should the primitive do.\n\nReturns\n-------\nCallResult[Outputs]\n    The outputs of shape [num_inputs, ...] wrapped inside ``CallResult``."
      },
      "produce_feature_importances": {
        "kind": "PRODUCE",
        "arguments": [
          "timeout",
          "iterations"
        ],
        "returns": "d3m.primitive_interfaces.base.CallResult[d3m.container.pandas.DataFrame]",
        "singleton": false,
        "inputs_across_samples": []
      },
      "set_params": {
        "kind": "OTHER",
        "arguments": [
          "params"
        ],
        "returns": "NoneType",
        "description": "Sets parameters of this primitive.\n\nParameters are all parameters of the primitive which can potentially change during a life-time of\na primitive. Parameters which cannot are passed through constructor.\n\nNo other arguments to the method are allowed (except for private arguments).\n\nParameters\n----------\nparams : Params\n    An instance of parameters."
      },
      "set_training_data": {
        "kind": "OTHER",
        "arguments": [
          "inputs",
          "outputs"
        ],
        "returns": "NoneType",
        "description": "Sets current training data of this primitive.\n\nThis marks training data as changed even if new training data is the same as\nprevious training data.\n\nStandard sublasses in this package do not adhere to the Liskov substitution principle when\ninheriting this method because they do not necessary accept all arguments found in the base\nclass. This means that one has to inspect which arguments are accepted at runtime, or in\nother words, one has to inspect which exactly subclass a primitive implements, if\nyou are accepting a wider range of primitives. This relaxation is allowed only for\nstandard subclasses found in this package. Primitives themselves should not break\nthe Liskov substitution principle but should inherit from a suitable base class.\n\nParameters\n----------\ninputs : Inputs\n    The inputs.\noutputs : Outputs\n    The outputs."
      }
    },
    "class_attributes": {
      "logger": "logging.Logger",
      "metadata": "d3m.metadata.base.PrimitiveMetadata"
    },
    "instance_attributes": {
      "hyperparams": "d3m.metadata.hyperparams.Hyperparams",
      "random_seed": "int",
      "docker_containers": "typing.Dict[str, d3m.primitive_interfaces.base.DockerContainer]",
      "volumes": "typing.Dict[str, str]",
      "temporary_directory": "typing.Union[NoneType, str]"
    },
    "params": {
      "classes_": "typing.Union[NoneType, numpy.ndarray, typing.List[numpy.ndarray]]",
      "max_features_": "typing.Union[NoneType, int]",
      "n_classes_": "typing.Union[NoneType, numpy.int64, typing.List[numpy.int64]]",
      "n_features_": "typing.Union[NoneType, int]",
      "n_outputs_": "typing.Union[NoneType, int]",
      "tree_": "object",
      "input_column_names": "typing.Union[NoneType, typing.Any]",
      "target_names_": "typing.Union[NoneType, typing.Sequence[typing.Any]]",
      "training_indices_": "typing.Union[NoneType, typing.Sequence[int]]",
      "target_column_indices_": "typing.Union[NoneType, typing.Sequence[int]]",
      "target_columns_metadata_": "typing.Union[NoneType, typing.List[collections.OrderedDict]]"
    }
  },
  "structural_type": "sklearn_wrap.SKDecisionTreeClassifier.SKDecisionTreeClassifier",
  "description": "Primitive wrapping for sklearn DecisionTreeClassifier\n`sklearn documentation <https://scikit-learn.org/stable/modules/generated/sklearn.tree.DecisionTreeClassifier.html>`_\n\nAttributes\n----------\nmetadata : PrimitiveMetadata\n    Primitive's metadata. Available as a class attribute.\nlogger : Logger\n    Primitive's logger. Available as a class attribute.\nhyperparams : Hyperparams\n    Hyperparams passed to the constructor.\nrandom_seed : int\n    Random seed passed to the constructor.\ndocker_containers : Dict[str, DockerContainer]\n    A dict mapping Docker image keys from primitive's metadata to (named) tuples containing\n    container's address under which the container is accessible by the primitive, and a\n    dict mapping exposed ports to ports on that address.\nvolumes : Dict[str, str]\n    A dict mapping volume keys from primitive's metadata to file and directory paths\n    where downloaded and extracted files are available to the primitive.\ntemporary_directory : str\n    An absolute path to a temporary directory a primitive can use to store any files\n    for the duration of the current pipeline run phase. Directory is automatically\n    cleaned up after the current pipeline run phase finishes.",
  "digest": "1e227dfcd7fb9677352bcf17ca6b76352eb2ae830b61a5181a3020cc07e98b85"
}