{
    "id": "d2fa8df2-6517-3c26-bafc-87b701c4043a",
    "version": "1.2.1",
    "name": "simon",
    "keywords": [
        "Data Type Predictor",
        "Semantic Classification",
        "Text",
        "NLP",
        "Tabular"
    ],
    "source": {
        "name": "Distil",
        "contact": "mailto:nklabs@newknowledge.com",
        "uris": [
            "https://github.com/NewKnowledge/simon-d3m-wrapper"
        ]
    },
    "installation": [
        {
            "type": "PIP",
            "package_uri": "git+https://github.com/NewKnowledge/simon-d3m-wrapper.git@60088ab82217767cd77f8a540ba56a24cd85401b#egg=SimonD3MWrapper"
        },
        {
            "type": "TGZ",
            "key": "simon_models_1",
            "file_uri": "http://public.datadrivendiscovery.org/simon_models_1.tar.gz",
            "file_digest": "d071106b823ab1168879651811dd03b829ab0728ba7622785bb5d3541496c45f"
        }
    ],
    "python_path": "d3m.primitives.data_cleaning.column_type_profiler.Simon",
    "algorithm_types": [
        "CONVOLUTIONAL_NEURAL_NETWORK"
    ],
    "primitive_family": "DATA_CLEANING",
    "schema": "https://metadata.datadrivendiscovery.org/schemas/v0/primitive.json",
    "original_python_path": "SimonD3MWrapper.wrapper.simon",
    "primitive_code": {
        "class_type_arguments": {
            "Inputs": "d3m.container.pandas.DataFrame",
            "Outputs": "d3m.container.pandas.DataFrame",
            "Params": "SimonD3MWrapper.wrapper.Params",
            "Hyperparams": "SimonD3MWrapper.wrapper.Hyperparams"
        },
        "interfaces_version": "2019.6.7",
        "interfaces": [
            "base.PrimitiveBase"
        ],
        "hyperparams": {
            "overwrite": {
                "type": "d3m.metadata.hyperparams.UniformBool",
                "default": false,
                "structural_type": "bool",
                "semantic_types": [
                    "https://metadata.datadrivendiscovery.org/types/ControlParameter"
                ],
                "description": "whether to overwrite manual annotations with SIMON annotations"
            },
            "statistical_classification": {
                "type": "d3m.metadata.hyperparams.UniformBool",
                "default": false,
                "structural_type": "bool",
                "semantic_types": [
                    "https://metadata.datadrivendiscovery.org/types/TuningParameter"
                ],
                "description": "whether to append categorical / ordinal annotations using rule-based classification"
            },
            "multi_label_classification": {
                "type": "d3m.metadata.hyperparams.UniformBool",
                "default": true,
                "structural_type": "bool",
                "semantic_types": [
                    "https://metadata.datadrivendiscovery.org/types/TuningParameter"
                ],
                "description": "whether to perfrom multi-label classification and append multiple annotations to metadata"
            }
        },
        "arguments": {
            "hyperparams": {
                "type": "SimonD3MWrapper.wrapper.Hyperparams",
                "kind": "RUNTIME"
            },
            "random_seed": {
                "type": "int",
                "kind": "RUNTIME",
                "default": 0
            },
            "volumes": {
                "type": "typing.Union[NoneType, typing.Dict[str, str]]",
                "kind": "RUNTIME",
                "default": null
            },
            "timeout": {
                "type": "typing.Union[NoneType, float]",
                "kind": "RUNTIME",
                "default": null
            },
            "iterations": {
                "type": "typing.Union[NoneType, int]",
                "kind": "RUNTIME",
                "default": null
            },
            "produce_methods": {
                "type": "typing.Sequence[str]",
                "kind": "RUNTIME"
            },
            "inputs": {
                "type": "d3m.container.pandas.DataFrame",
                "kind": "PIPELINE"
            },
            "outputs": {
                "type": "d3m.container.pandas.DataFrame",
                "kind": "PIPELINE"
            },
            "params": {
                "type": "SimonD3MWrapper.wrapper.Params",
                "kind": "RUNTIME"
            }
        },
        "class_methods": {
            "can_accept": {
                "arguments": {
                    "method_name": {
                        "type": "str"
                    },
                    "arguments": {
                        "type": "typing.Dict[str, typing.Union[d3m.metadata.base.Metadata, type]]"
                    },
                    "hyperparams": {
                        "type": "SimonD3MWrapper.wrapper.Hyperparams"
                    }
                },
                "returns": "typing.Union[NoneType, d3m.metadata.base.DataMetadata]",
                "description": "Returns a metadata object describing the output of a call of ``method_name`` method under\n``hyperparams`` with primitive arguments ``arguments``, if such arguments can be accepted by the method.\nOtherwise it returns ``None`` or raises an exception.\n\nDefault implementation checks structural types of ``arguments`` expected arguments' types\nand ignores ``hyperparams``.\n\nBy (re)implementing this method, a primitive can fine-tune which arguments it accepts\nfor its methods which goes beyond just structural type checking. For example, a primitive might\noperate only on images, so it can accept numpy arrays, but only those with semantic type\ncorresponding to an image. Or it might check dimensions of an array to assure it operates\non square matrix.\n\nPrimitive arguments are a superset of method arguments. This method receives primitive arguments and\nnot just method arguments so that it is possible to implement it without a state between calls\nto ``can_accept`` for multiple methods. For example, a call to ``fit`` could during normal execution\ninfluences what a later ``produce`` call outputs. But during ``can_accept`` call we can directly have\naccess to arguments which would have been given to ``fit`` to produce metadata of the ``produce`` call.\n\nNot all primitive arguments have to be provided, only those used by ``fit``, ``set_training_data``,\nand produce methods, and those used by the ``method_name`` method itself.\n\nParameters\n----------\nmethod_name : str\n    Name of the method which would be called.\narguments : Dict[str, Union[Metadata, type]]\n    A mapping between argument names and their metadata objects (for pipeline arguments) or types (for other).\nhyperparams : Hyperparams\n    Hyper-parameters under which the method would be called during regular primitive execution.\n\nReturns\n-------\nDataMetadata\n    Metadata object of the method call result, or ``None`` if arguments are not accepted\n    by the method."
            }
        },
        "instance_methods": {
            "__init__": {
                "kind": "OTHER",
                "arguments": [
                    "hyperparams",
                    "random_seed",
                    "volumes"
                ],
                "returns": "NoneType"
            },
            "fit": {
                "kind": "OTHER",
                "arguments": [
                    "timeout",
                    "iterations"
                ],
                "returns": "d3m.primitive_interfaces.base.CallResult[NoneType]",
                "description": "Learns column annotations using training data. Saves to apply to testing data.\n\nParameters\n----------\ntimeout : float\n    A maximum time this primitive should be fitting during this method call, in seconds.\niterations : int\n    How many of internal iterations should the primitive do.\n\nReturns\n-------\nCallResult[None]\n    A ``CallResult`` with ``None`` value."
            },
            "fit_multi_produce": {
                "kind": "OTHER",
                "arguments": [
                    "produce_methods",
                    "inputs",
                    "outputs",
                    "timeout",
                    "iterations"
                ],
                "returns": "d3m.primitive_interfaces.base.MultiCallResult",
                "description": "A method calling ``fit`` and after that multiple produce methods at once.\n\nThis method allows primitive author to implement an optimized version of both fitting\nand producing a primitive on same data.\n\nIf any additional method arguments are added to primitive's ``set_training_data`` method\nor produce method(s), or removed from them, they have to be added to or removed from this\nmethod as well. This method should accept an union of all arguments accepted by primitive's\n``set_training_data`` method and produce method(s) and then use them accordingly when\ncomputing results.\n\nThe default implementation of this method just calls first ``set_training_data`` method,\n``fit`` method, and all produce methods listed in ``produce_methods`` in order and is\npotentially inefficient.\n\nParameters\n----------\nproduce_methods : Sequence[str]\n    A list of names of produce methods to call.\ninputs : Inputs\n    The inputs given to ``set_training_data`` and all produce methods.\noutputs : Outputs\n    The outputs given to ``set_training_data``.\ntimeout : float\n    A maximum time this primitive should take to both fit the primitive and produce outputs\n    for all produce methods listed in ``produce_methods`` argument, in seconds.\niterations : int\n    How many of internal iterations should the primitive do for both fitting and producing\n    outputs of all produce methods.\n\nReturns\n-------\nMultiCallResult\n    A dict of values for each produce method wrapped inside ``MultiCallResult``."
            },
            "get_params": {
                "kind": "OTHER",
                "arguments": [],
                "returns": "SimonD3MWrapper.wrapper.Params",
                "description": "Returns parameters of this primitive.\n\nParameters are all parameters of the primitive which can potentially change during a life-time of\na primitive. Parameters which cannot are passed through constructor.\n\nParameters should include all data which is necessary to create a new instance of this primitive\nbehaving exactly the same as this instance, when the new instance is created by passing the same\nparameters to the class constructor and calling ``set_params``.\n\nNo other arguments to the method are allowed (except for private arguments).\n\nReturns\n-------\nParams\n    An instance of parameters."
            },
            "multi_produce": {
                "kind": "OTHER",
                "arguments": [
                    "produce_methods",
                    "inputs",
                    "timeout",
                    "iterations"
                ],
                "returns": "d3m.primitive_interfaces.base.MultiCallResult",
                "description": "A method calling multiple produce methods at once.\n\nWhen a primitive has multiple produce methods it is common that they might compute the\nsame internal results for same inputs but return different representations of those results.\nIf caller is interested in multiple of those representations, calling multiple produce\nmethods might lead to recomputing same internal results multiple times. To address this,\nthis method allows primitive author to implement an optimized version which computes\ninternal results only once for multiple calls of produce methods, but return those different\nrepresentations.\n\nIf any additional method arguments are added to primitive's produce method(s), they have\nto be added to this method as well. This method should accept an union of all arguments\naccepted by primitive's produce method(s) and then use them accordingly when computing\nresults.\n\nThe default implementation of this method just calls all produce methods listed in\n``produce_methods`` in order and is potentially inefficient.\n\nIf primitive should have been fitted before calling this method, but it has not been,\nprimitive should raise a ``PrimitiveNotFittedError`` exception.\n\nParameters\n----------\nproduce_methods : Sequence[str]\n    A list of names of produce methods to call.\ninputs : Inputs\n    The inputs given to all produce methods.\ntimeout : float\n    A maximum time this primitive should take to produce outputs for all produce methods\n    listed in ``produce_methods`` argument, in seconds.\niterations : int\n    How many of internal iterations should the primitive do.\n\nReturns\n-------\nMultiCallResult\n    A dict of values for each produce method wrapped inside ``MultiCallResult``."
            },
            "produce": {
                "kind": "PRODUCE",
                "arguments": [
                    "inputs",
                    "timeout",
                    "iterations"
                ],
                "returns": "d3m.primitive_interfaces.base.CallResult[d3m.container.pandas.DataFrame]",
                "singleton": false,
                "inputs_across_samples": [],
                "description": "Add SIMON annotations if manual annotations do not exist. Hyperparameter overwrite controls whether manual\nannotations should be overwritten with SIMON annotations.\n\nParameters\n----------\ninputs : Input pandas frame\n\nReturns\n-------\nOutputs\n    Input pandas frame with metadata augmented and optionally overwritten"
            },
            "produce_metafeatures": {
                "kind": "PRODUCE",
                "arguments": [
                    "inputs",
                    "timeout",
                    "iterations"
                ],
                "returns": "d3m.primitive_interfaces.base.CallResult[d3m.container.pandas.DataFrame]",
                "singleton": false,
                "inputs_across_samples": [],
                "description": "Produce primitive's best guess for the structural type of each input column.\n\nParameters\n----------\ninputs : D3M Dataframe object\n\nReturns\n-------\nOutputs\n    The outputs is two lists of lists, each has length equal to number of columns in input pandas frame.\n    Each entry of the first one is a list of strings corresponding to each column's multi-label classification.\n    Each entry of the second one is a list of floats corresponding to prediction probabilities."
            },
            "set_params": {
                "kind": "OTHER",
                "arguments": [
                    "params"
                ],
                "returns": "NoneType",
                "description": "Sets parameters of this primitive.\n\nParameters are all parameters of the primitive which can potentially change during a life-time of\na primitive. Parameters which cannot are passed through constructor.\n\nNo other arguments to the method are allowed (except for private arguments).\n\nParameters\n----------\nparams : Params\n    An instance of parameters."
            },
            "set_training_data": {
                "kind": "OTHER",
                "arguments": [
                    "inputs",
                    "outputs"
                ],
                "returns": "NoneType",
                "description": "Set primitive's training data\n\nParameters\n----------\ninputs : Input pandas frame\n\nReturns\n-------\nOutputs\n    None"
            }
        },
        "class_attributes": {
            "logger": "logging.Logger",
            "metadata": "d3m.metadata.base.PrimitiveMetadata"
        },
        "instance_attributes": {
            "hyperparams": "d3m.metadata.hyperparams.Hyperparams",
            "random_seed": "int",
            "docker_containers": "typing.Dict[str, d3m.primitive_interfaces.base.DockerContainer]",
            "volumes": "typing.Dict[str, str]",
            "temporary_directory": "typing.Union[NoneType, str]"
        },
        "params": {}
    },
    "structural_type": "SimonD3MWrapper.wrapper.simon",
    "description": "The primitive infers the semantic type of each column from a LSTM-FCN neural network trained on 18\ndifferent semantic types. The primitive's annotations will overwrite the default annotations if 'overwrite'\nis set to True and will annotate columns with multiple annotations if multi_label_classification is set to 'True'.\nFinally, a different mode of categorical and ordinal classification using rule-based heuristics can be activated if\n'statistical_classification' is set to True.\n\nAttributes\n----------\nmetadata : PrimitiveMetadata\n    Primitive's metadata. Available as a class attribute.\nlogger : Logger\n    Primitive's logger. Available as a class attribute.\nhyperparams : Hyperparams\n    Hyperparams passed to the constructor.\nrandom_seed : int\n    Random seed passed to the constructor.\ndocker_containers : Dict[str, DockerContainer]\n    A dict mapping Docker image keys from primitive's metadata to (named) tuples containing\n    container's address under which the container is accessible by the primitive, and a\n    dict mapping exposed ports to ports on that address.\nvolumes : Dict[str, str]\n    A dict mapping volume keys from primitive's metadata to file and directory paths\n    where downloaded and extracted files are available to the primitive.\ntemporary_directory : str\n    An absolute path to a temporary directory a primitive can use to store any files\n    for the duration of the current pipeline run phase. Directory is automatically\n    cleaned up after the current pipeline run phase finishes.",
    "digest": "6fa0e87f8044df78a99507a60648d3b7336161862aee8994ff2ed57bea5b0f05"
}
