{
    "id": "ab8dcbab-61e7-49c6-82a7-eb7cc89118b4",
    "schema": "https://metadata.datadrivendiscovery.org/schemas/v0/pipeline.json",
    "created": "2020-03-29T04:48:51.865705Z",
    "inputs": [
        {
            "name": "inputs"
        }
    ],
    "outputs": [
        {
            "data": "steps.4.produce",
            "name": "output predictions"
        }
    ],
    "steps": [
        {
            "type": "PRIMITIVE",
            "primitive": {
                "id": "f31f8c1f-d1c5-43e5-a4b2-2ae4a761ef2e",
                "version": "0.2.0",
                "python_path": "d3m.primitives.data_transformation.denormalize.Common",
                "name": "Denormalize datasets",
                "digest": "35e2d7ea40653c78c5800ea07373edda7a66071cb65e70b588ac6d16860fbedf"
            },
            "arguments": {
                "inputs": {
                    "type": "CONTAINER",
                    "data": "inputs.0"
                }
            },
            "outputs": [
                {
                    "id": "produce"
                }
            ]
        },
        {
            "type": "PRIMITIVE",
            "primitive": {
                "id": "4b42ce1e-9b98-4a25-b68e-fad13311eb65",
                "version": "0.3.0",
                "python_path": "d3m.primitives.data_transformation.dataset_to_dataframe.Common",
                "name": "Extract a DataFrame from a Dataset",
                "digest": "d8286a2c483874bbd71f6b68c409472428e6a8fa08a5d3e12690f054a4d07419"
            },
            "arguments": {
                "inputs": {
                    "type": "CONTAINER",
                    "data": "steps.0.produce"
                }
            },
            "outputs": [
                {
                    "id": "produce"
                }
            ]
        },
        {
            "type": "PRIMITIVE",
            "primitive": {
                "id": "7d3dee2f-326c-42a9-bafb-99abd7c4c251",
                "version": "0.1.0",
                "python_path": "d3m.primitives.feature_extraction.bag_of_words.UBC",
                "name": "Bag of Words feature extraction",
                "digest": "ce101c9e89f56873bca4f42f2b529afaf7f15af6d5e6d5c3824eab00643a6139"
            },
            "arguments": {
                "inputs": {
                    "type": "CONTAINER",
                    "data": "steps.1.produce"
                }
            },
            "outputs": [
                {
                    "id": "produce"
                }
            ],
            "hyperparams": {
                "n_samples": {
                    "type": "VALUE",
                    "data": 2000
                }
            }
        },
        {
            "type": "PRIMITIVE",
            "primitive": {
                "id": "13e32378-a1ed-425e-8a9b-b4463b6921fa",
                "version": "0.1.0",
                "python_path": "d3m.primitives.classification.ccfs.UBC",
                "name": "Canonical Correlation Forests Classifier",
                "digest": "b18995172a860d38f5f0cab1830dcc43889a60776a48c86abbfa452f91023c5c"
            },
            "arguments": {
                "inputs": {
                    "type": "CONTAINER",
                    "data": "steps.2.produce"
                },
                "outputs": {
                    "type": "CONTAINER",
                    "data": "steps.1.produce"
                }
            },
            "outputs": [
                {
                    "id": "produce"
                }
            ]
        },
        {
            "type": "PRIMITIVE",
            "primitive": {
                "id": "8d38b340-f83f-4877-baaa-162f8e551736",
                "version": "0.3.0",
                "python_path": "d3m.primitives.data_transformation.construct_predictions.Common",
                "name": "Construct pipeline predictions output",
                "digest": "ebd5ef709535e6b21759e08cb5cd19bffd040f1a16b6e4ce7bece1a1a97776d5"
            },
            "arguments": {
                "inputs": {
                    "type": "CONTAINER",
                    "data": "steps.3.produce"
                },
                "reference": {
                    "type": "CONTAINER",
                    "data": "steps.1.produce"
                }
            },
            "outputs": [
                {
                    "id": "produce"
                }
            ]
        }
    ],
    "digest": "9c5f04c144505720f469fd443cfd069d5f3355b9aa4a77b45a0b6fe67c02709f"
}